HEA_classicCluster_4
../../Input/classic_cluster.vcl ../../Input/Inspiral_30.xml.dag
### Exec 0 :
14.4333 0.0170672
14.1833 0.0442389
14.1167 0.0733912
14.0167 0.113095
13.9833 0.183054
13.9667 0.302956
### Exec 1 :
14.1 0.0294032
14.0333 0.053009
13.9833 0.0632716
13.9167 0.0965297
### Exec 2 :
14.2333 0.0433403
14.1333 0.0520827
14.0667 0.0610124
14.0333 0.0706659
13.9833 0.137428
###!# result: 13.9555666667 +/- 0.0283061045634	0.178971233333 +/- 0.0892462305824

