4 6 3
0 60 2 0 1 1 2 
1 10 2 0 1 1 3 
2 15 1 1 1 4 
3 22 3 2 3 4 1 5 
0 30 1 1 0 
1 30 1 1 0 
2 50 0
3 50 0
4 55 0
5 20.5 0
0.2 0.05 0.3 
1000 1000 1000 
0 15 10 
15 0 5 
10 5 0 
(1,1) (3,3) (4,4) 
(3,3) (1,1) (7,7) 
(4,4) (7,7) (1,1) 

(1,1) (3,3) (4,4) 
(3,3) (1,1) (7,7) 
(4,4) (7,7) (1,1) 

(1,1) (4,4) (6,6) 
(4,4) (1,1) (11,11) 
(6,6) (11,11) (1,1) 

(1,1) (4,4) (6,6) 
(4,4) (1,1) (11,11) 
(6,6) (11,11) (1,1) 

(1,1) (5,4) (6,6) 
(5,4) (1,1) (12,12) 
(6,6) (12,12) (1,1) 

(1,1) (2,2) (3,3) 
(2,2) (1,1) (5,5) 
(3,3) (5,5) (1,1) 


Optimal solution found.

The objetive function value = 20
x_1_2_7 = 1
x_2_1_8 = 1
x_3_1_3 = 1
x_4_2_17 = 1
xD_1_1_2_1_1 = 1
xD_1_2_2_1_4 = 1
xD_2_1_1_1_7 = 1
xD_2_2_1_1_1 = 1
xD_3_2_1_1_2 = 1
xD_4_3_2_2_16 = 1
xD_4_4_2_2_15 = 1
xD_4_5_2_1_10 = 1
xE_3_2_2_14 = 1
xE_4_1_2_10 = 1
xE_5_1_1_6 = 1
xE_6_2_2_19 = 1
y_1_1_1 = 1
y_1_1_2 = 1
y_1_1_3 = 1
y_1_1_4 = 1
y_1_1_5 = 1
y_1_1_6 = 1
y_1_1_7 = 1
y_1_1_8 = 1
y_1_1_9 = 1
y_1_1_10 = 1
y_1_1_11 = 1
y_1_1_12 = 1
y_1_1_13 = 1
y_1_1_14 = 1
y_1_1_15 = 1
y_1_1_16 = 1
y_1_1_17 = 1
y_1_1_18 = 1
y_1_1_19 = 1
y_1_1_20 = 1
y_1_1_21 = 1
y_1_1_22 = 1
y_1_1_23 = 1
y_1_1_24 = 1
y_1_1_25 = 1
y_1_1_26 = 1
y_1_1_27 = 1
y_1_1_28 = 1
y_1_1_29 = 1
y_1_1_30 = 1
y_1_1_31 = 1
y_1_1_32 = 1
y_1_1_33 = 1
y_1_1_34 = 1
y_1_1_35 = 1
y_1_1_36 = 1
y_1_1_37 = 1
y_1_1_38 = 1
y_1_1_39 = 1
y_1_1_40 = 1
y_1_1_41 = 1
y_1_1_42 = 1
y_1_1_43 = 1
y_1_1_44 = 1
y_1_1_45 = 1
y_1_1_46 = 1
y_1_1_47 = 1
y_1_1_48 = 1
y_1_1_49 = 1
y_1_1_50 = 1
y_1_1_51 = 1
y_1_1_52 = 1
y_1_1_53 = 1
y_1_1_54 = 1
y_1_1_55 = 1
y_1_1_56 = 1
y_1_1_57 = 1
y_1_1_58 = 1
y_1_1_59 = 1
y_1_1_60 = 1
y_1_1_61 = 1
y_1_1_62 = 1
y_1_1_63 = 1
y_1_1_64 = 1
y_1_1_65 = 1
y_1_1_66 = 1
y_1_1_67 = 1
y_1_1_68 = 1
y_1_1_69 = 1
y_1_1_70 = 1
y_1_1_71 = 1
y_1_1_72 = 1
y_1_1_73 = 1
y_1_1_74 = 1
y_1_1_75 = 1
y_1_1_76 = 1
y_1_1_77 = 1
y_1_1_78 = 1
y_1_1_79 = 1
y_1_1_80 = 1
y_1_1_81 = 1
y_1_1_82 = 1
y_1_1_83 = 1
y_1_1_84 = 1
y_1_1_85 = 1
y_1_1_86 = 1
y_1_1_87 = 1
y_1_1_88 = 1
y_1_1_89 = 1
y_1_1_90 = 1
y_1_1_91 = 1
y_1_1_92 = 1
y_1_1_93 = 1
y_1_1_94 = 1
y_1_1_95 = 1
y_1_1_96 = 1
y_1_1_97 = 1
y_1_1_98 = 1
y_1_1_99 = 1
y_1_1_100 = 1
y_1_1_101 = 1
y_1_1_102 = 1
y_1_1_103 = 1
y_1_1_104 = 1
y_1_1_105 = 1
y_1_1_106 = 1
y_1_1_107 = 1
y_1_1_108 = 1
y_1_1_109 = 1
y_1_1_110 = 1
y_1_1_111 = 1
y_1_1_112 = 1
y_1_1_113 = 1
y_1_1_114 = 1
y_1_1_115 = 1
y_1_1_116 = 1
y_1_1_117 = 1
y_1_1_118 = 1
y_1_1_119 = 1
y_1_1_120 = 1
y_1_1_121 = 1
y_1_1_122 = 1
y_1_1_123 = 1
y_1_1_124 = 1
y_1_1_125 = 1
y_1_1_126 = 1
y_1_1_127 = 1
y_1_1_128 = 1
y_1_1_129 = 1
y_1_1_130 = 1
y_1_1_131 = 1
y_1_1_132 = 1
y_1_1_133 = 1
y_1_1_134 = 1
y_1_1_135 = 1
y_1_1_136 = 1
y_1_1_137 = 1
y_1_1_138 = 1
y_1_1_139 = 1
y_1_1_140 = 1
y_1_1_141 = 1
y_1_1_142 = 1
y_1_1_143 = 1
y_1_1_144 = 1
y_1_1_145 = 1
y_1_1_146 = 1
y_1_1_147 = 1
y_1_1_148 = 1
y_1_1_149 = 1
y_1_1_150 = 1
y_2_1_1 = 1
y_2_1_2 = 1
y_2_1_3 = 1
y_2_1_4 = 1
y_2_1_5 = 1
y_2_1_6 = 1
y_2_1_7 = 1
y_2_1_8 = 1
y_2_1_9 = 1
y_2_1_10 = 1
y_2_1_11 = 1
y_2_1_12 = 1
y_2_1_13 = 1
y_2_1_14 = 1
y_2_1_15 = 1
y_2_1_16 = 1
y_2_1_17 = 1
y_2_1_18 = 1
y_2_1_19 = 1
y_2_1_20 = 1
y_2_1_21 = 1
y_2_1_22 = 1
y_2_1_23 = 1
y_2_1_24 = 1
y_2_1_25 = 1
y_2_1_26 = 1
y_2_1_27 = 1
y_2_1_28 = 1
y_2_1_29 = 1
y_2_1_30 = 1
y_2_1_31 = 1
y_2_1_32 = 1
y_2_1_33 = 1
y_2_1_34 = 1
y_2_1_35 = 1
y_2_1_36 = 1
y_2_1_37 = 1
y_2_1_38 = 1
y_2_1_39 = 1
y_2_1_40 = 1
y_2_1_41 = 1
y_2_1_42 = 1
y_2_1_43 = 1
y_2_1_44 = 1
y_2_1_45 = 1
y_2_1_46 = 1
y_2_1_47 = 1
y_2_1_48 = 1
y_2_1_49 = 1
y_2_1_50 = 1
y_2_1_51 = 1
y_2_1_52 = 1
y_2_1_53 = 1
y_2_1_54 = 1
y_2_1_55 = 1
y_2_1_56 = 1
y_2_1_57 = 1
y_2_1_58 = 1
y_2_1_59 = 1
y_2_1_60 = 1
y_2_1_61 = 1
y_2_1_62 = 1
y_2_1_63 = 1
y_2_1_64 = 1
y_2_1_65 = 1
y_2_1_66 = 1
y_2_1_67 = 1
y_2_1_68 = 1
y_2_1_69 = 1
y_2_1_70 = 1
y_2_1_71 = 1
y_2_1_72 = 1
y_2_1_73 = 1
y_2_1_74 = 1
y_2_1_75 = 1
y_2_1_76 = 1
y_2_1_77 = 1
y_2_1_78 = 1
y_2_1_79 = 1
y_2_1_80 = 1
y_2_1_81 = 1
y_2_1_82 = 1
y_2_1_83 = 1
y_2_1_84 = 1
y_2_1_85 = 1
y_2_1_86 = 1
y_2_1_87 = 1
y_2_1_88 = 1
y_2_1_89 = 1
y_2_1_90 = 1
y_2_1_91 = 1
y_2_1_92 = 1
y_2_1_93 = 1
y_2_1_94 = 1
y_2_1_95 = 1
y_2_1_96 = 1
y_2_1_97 = 1
y_2_1_98 = 1
y_2_1_99 = 1
y_2_1_100 = 1
y_2_1_101 = 1
y_2_1_102 = 1
y_2_1_103 = 1
y_2_1_104 = 1
y_2_1_105 = 1
y_2_1_106 = 1
y_2_1_107 = 1
y_2_1_108 = 1
y_2_1_109 = 1
y_2_1_110 = 1
y_2_1_111 = 1
y_2_1_112 = 1
y_2_1_113 = 1
y_2_1_114 = 1
y_2_1_115 = 1
y_2_1_116 = 1
y_2_1_117 = 1
y_2_1_118 = 1
y_2_1_119 = 1
y_2_1_120 = 1
y_2_1_121 = 1
y_2_1_122 = 1
y_2_1_123 = 1
y_2_1_124 = 1
y_2_1_125 = 1
y_2_1_126 = 1
y_2_1_127 = 1
y_2_1_128 = 1
y_2_1_129 = 1
y_2_1_130 = 1
y_2_1_131 = 1
y_2_1_132 = 1
y_2_1_133 = 1
y_2_1_134 = 1
y_2_1_135 = 1
y_2_1_136 = 1
y_2_1_137 = 1
y_2_1_138 = 1
y_2_1_139 = 1
y_2_1_140 = 1
y_2_1_141 = 1
y_2_1_142 = 1
y_2_1_143 = 1
y_2_1_144 = 1
y_2_1_145 = 1
y_2_1_146 = 1
y_2_1_147 = 1
y_2_1_148 = 1
y_2_1_149 = 1
y_2_1_150 = 1
y_3_2_16 = 1
y_4_2_15 = 1
y_4_2_16 = 1
y_5_1_8 = 1
y_5_1_9 = 1
y_5_1_10 = 1
z_1 = 20
Tempo de execucao (CPU)= 64.2177
